{
  "@context": "https://www-staging.hestia.earth/Term.jsonld",
  "@id": "ch4ToAirCropResidueBurning",
  "@type": "Term",
  "name": "CH4, to air, crop residue burning",
  "units": "kg CH4",
  "definition": "Methane emissions to air from crop residue burning",
  "defaultProperties": {
    "includedInSystemBoundary": {
      "term": {
        "@context": "https://www-staging.hestia.earth/Term.jsonld",
        "@id": "includedInSystemBoundary",
        "@type": "Term",
        "name": "Included in System Boundary",
        "definition": "Whether the emission or impact is included in the system boundary or not.",
        "termType": "property",
        "shortName": "includedInSystemBoundary"
      },
      "value": true,
      "@type": "Property"
    }
  },
  "termType": "emission",
  "shortName": "ch4ToAirCropResidueBurning"
}
